#,2020,AH %,2019,2018,2017,2016
Caixa Líquido Atividades Operacionais - (R$),3480740000.0,21.83,-651160000.0,1839010000.0,1057109999.9999999,867700000.0
Caixa Gerado nas Operações - (R$),4143020000.0000005,13.47,4074870000.0,3013600000.0,2180190000.0,1921300000.0
Lucro Líquido - (R$),3447650000.0,38.02,2715630000.0,1161060000.0,1205080000.0,873130000.0
Equivalência Patrimonial - (R$),-33740000.0,103.23,,-36520000.0,-56660000.0,-27880000.0
Depreciação e Amortização - (R$),713150000.0,10.49,636800000.0,456420000.0,386660000.0,349940000.0
Variações nos Ativos e Passivos - (R$),407480000.0,41.13,-3921400000.0,-525690000.00000006,-515880000.0,-876290000.0
Caixa Líquido Atividades de Investimento - (R$),-2438110000.0,166.57,-5769960000.0,-2384020000.0,628670000.0,-944430000.0
Caixa Líquido Atividades de Financiamento - (R$),-608290000.0,161.14,3462320000.0,1116530000.0,1565910000.0,599650000.0
Variação Cambial de Caixa e Equivalentes - (R$),0.0,,0.0,0.0,0.0,0.0
Aumento de Caixa e Equivalentes - (R$),434340000.0,521.84,-2958790000.0,571520000.0,3251690000.0,522919999.99999994
Saldo Inicial de Caixa e Equivalentes - (R$),1785200000.0,131.43,4743990000.0,4172470000.0000005,920780000.0,397870000.0
Saldo Final de Caixa e Equivalentes - (R$),2219550000.0,353.14,1785200000.0,4743990000.0,4172470000.0000005,920780000.0
