INDICADORES DE CRESCIMENTO,ATUAL,2020,2019,2018,2017,2016,2015,2014,2013,2012,2011,2010,2009
CAGR RECEITAS 5 ANOS,19.79,19.79,22.53,19.0,25.75,32.57,32.16,33.25,,,,,
CAGR LUCROS 5 ANOS,29.92,29.77,30.52,67.98,48.88,34.8,33.75,23.43,,,,,
