INDICADORES DE EFICIÊNCIA,ATUAL,2020,2019,2018,2017,2016,2015,2014,2013,2012,2011,2010,2009
M. BRUTA,33.21,33.46,30.48,25.91,28.94,27.02,24.87,25.46,22.1,28.72,34.68,38.52,35.81
M. EBITDA,30.04,30.53,26.31,,,,15.61,18.36,11.48,17.83,23.32,28.52,33.7
M. EBIT,26.64,26.73,22.92,18.47,15.55,14.83,11.19,14.02,6.12,13.97,17.74,22.7,27.67
M. LÍQUIDA,15.84,16.63,12.85,8.16,10.99,8.96,11.15,9.37,1.46,4.73,8.24,10.5,13.75
