INDICADORES DE VALUATION,ATUAL,2020,2019,2018,2017,2016,2015,2014,2013,2012,2011
D.Y,3.89,3.54,3.88,4.55,6.0,3.29,20.42,7.45,6.67,0.42,3.12
P/L,4.45,6.44,4.72,4.52,4.46,3.0,7.77,2.83,6.94,2.01,9.67
PEG RATIO,0.81,-0.16,,3.55,-2.08,0.02,-0.13,0.03,-0.12,0.01,
P/VP,0.9,1.06,1.51,0.78,0.9,0.65,0.84,0.63,0.82,0.62,1.31
EV/EBITDA,,,3.5,,,,,,,,
EV/EBIT,2.59,4.14,3.36,2.64,2.78,4.97,9.98,1.87,4.54,2.94,4.56
P/EBITDA,,,3.5,,,,,,,,
P/EBIT,2.59,4.14,3.36,2.64,2.78,4.97,9.98,1.87,4.54,2.94,4.56
VPA,80.35,71.46,62.84,48.78,41.01,38.93,32.92,38.99,34.94,30.85,26.78
P/ATIVO,0.1,0.11,0.14,0.06,0.06,0.05,0.06,0.06,0.07,0.05,0.12
LPA,16.18,11.8,20.11,8.4,8.29,8.48,3.54,8.65,4.14,9.43,3.62
P/SR,1.58,1.66,1.49,0.64,0.59,0.4,0.37,0.49,0.67,0.43,0.91
P/CAP. GIRO,1.33,-1.06,-28.04,27.18,4.96,0.49,0.4,0.34,1.21,0.44,3.64
P/ATIVO CIRC. LIQ.,-0.11,-0.15,-0.18,-0.08,-0.1,-0.09,-0.12,-0.14,-0.14,-0.09,-0.19
