#,"ÚLT. 12M
3T2020 - 2T2021",AH %,empty_3,2020,empty_6,2019,empty_9,2018,empty_12,2017,empty_15,2016,empty_18,2015,empty_21,2014,empty_24,2013,empty_27,2012,empty_30,2011,empty_33,2010,empty_36,2009,empty_39,2008,empty_41
"Receita Líquida - (R$)
format_quote",3926060000.0,-17.02,,3946070000.0,,5489910000.0,,5105950000.0,,5403700000.0,,5438820000.0,,6493220000.0,,4361330000.0,,3710090000.0,,3804680000.0,,3347860000.0,,2431270000.0,,2005200000.0,,2416530000.0,
Custos - (R$),-984590000.0,-25.93,,-1674200000.0,,-2981900000.0,,-3570690000.0,,-3777810000.0,,-4121109999.9999995,,-5389170000.0,,-3101140000.0,,-2709910000.0,,-2603570000.0,,-2130600000.0,,-1464880000.0,,-1219440000.0,,-1646410000.0,
"Lucro Bruto - (R$)
format_quote",2941470000.0,2.03,,2271860000.0,,2508010000.0,,1535260000.0,,1625900000.0,,1317720000.0,,1104050000.0,,1260200000.0,,1000180000.0,,1201100000.0,,1217260000.0,,966390000.0,,785760000.0,,770120000.0,
Despesas/Receitas Operacionais - (R$),-537870000.0,19.0,,-688150000.0,,-67350000.0,,-291970000.0,,-477560000.0,,-875340000.0,,-866060000.0,,-128400000.0,,-448960000.0,,-639080000.0,,-548830000.0,,-436120000.0,,-126660000.0,,-156370000.0,
"EBITDA - (R$)
format_quote",1243660000.0,,,,,2341200000.0,,,,,,,,,,,,,,,,,,,,,,,
"Amortização/Depreciação
format_quote",-6340000.0,,,,,-11610000.0,,,,,,,,,,,,,,,,,,,,,,,
"EBIT - (R$)
format_quote",2403610000.0,7.39,,1583720000.0,,2440660000.0,,1243290000.0,,1148340000.0,,442380000.0,,237990000.0,,1131800000.0,,551220000.0,,562020000.0,,668430000.0,,530270000.0,,659110000.0,,613750000.0,
"Resultado não operacional - (R$)
format_quote",3440000.0,,,,,-5830000.0,,,,,,,,,,,,,,,,,,,,,,,
"Resultado Financeiro - (R$)
format_quote",0.0,,,,,,,,,,,,,,,,,,,,,,,,,,,,
Impostos - (R$),-896120000.0,20.71,,-502180000.0,,-592900000.0,,-360820000.0,,-111450000.0,,-332260000.0,,-405310000.0,,-186180000.0,,-230460000.0,,-422270000.0,,-296880000.0,,-238980000.0,,-225300000.0,,-186650000.0,
"Lucro Líquido - (R$)
format_quote",1397110000.0,9.02,,1019220000.0,,1736690000.0,,725500000.0,,716390000.0,,732070000.0,,305720000.0,,747350000.0,,360360000.0,,820490000.0,,314800000.0,,313590000.0,,459010000.0,,421030000.0,
Lucro atribuído a Controladora,0.0,,,,,,,,,,,,,,,,,,,,,,,,,,,,
Lucro atribuído a Não Controladores,0.0,,,,,,,,,,,,,,,,,,,,,,,,,,,,
"CAPEX - (R$)
format_quote",0.0,,,,,,,,,,,,,,,,,,,,,,,,,,,,
"Dívida Bruta - (R$)
format_quote",,,,,,,,,,,,,,,,,,,,,,,,,,,,,
"Dívida Líquida - (R$)
format_quote",,,,,,,,,,,,,,,,,,,,,,,,,,,,,
"ROE - (%)
format_quote",20.13,-5.42,,16.51,,32.0,,17.35,,19.1,,21.77,,10.75,,22.19,,11.85,,30.57,,13.51,,14.4,,22.15,,23.42,
"ROIC - (%)
format_quote",,,,,,,,2.12,,1.87,,0.79,,0.49,,2.82,,1.45,,1.41,,2.15,,1.86,,,,,
"Margem Bruta - (%)
format_quote",74.92,22.97,,57.57,,45.68,,30.07,,30.09,,24.23,,17.0,,28.89,,26.96,,31.57,,36.36,,39.75,,39.19,,31.87,
Margem Ebitda - (%),31.68,,,,,42.65,,,,,,,,,,,,,,,,,,,,,,,
"Margem Líquida - (%)
format_quote",35.59,31.4,,25.83,,31.63,,14.21,,13.26,,13.46,,4.71,,17.14,,9.71,,21.57,,9.4,,12.9,,22.89,,17.42,
"Dívida Líquida/Ebitda
format_quote",,,,,,,,,,,,,,,,,,,,,,,,,,,,,
