#,"ÚLT. 12M
3T2020 - 2T2021",AH %,empty_3,2020,empty_6,2019,empty_9,2018,empty_12,2017,empty_15,2016,empty_18,2015,empty_21,2014,empty_24,2013,empty_27,2012,empty_30,2011,empty_33,2010,empty_36,2009,empty_38
"Receita Líquida - (R$)
format_quote",182386000000.0,17315.17,,173757000000.0,,193037000000.0,,131317000000.0,,149572000000.0,,174984000000.0,,129574000000.0,,129035000000.0,,94797000000.0,,101582000000.0,,103601000000.0,,82504000000.0,,473750000.0,
Custos - (R$),-54900000000.0,52788.48,,-73558000000.0,,-75958000000.0,,-70612000000.0,,-78330000000.0,,-95129000000.0,,-75064000000.0,,-72977000000.0,,-46361000000.0,,-48067000000.0,,-55599000000.0,,-36840000000.0,,-69660000.0,
"Lucro Bruto - (R$)
format_quote",127486000000.0,11200.4,,100199000000.0,,117079000000.0,,60705000000.0,,71242000000.0,,79855000000.0,,54510000000.0,,56058000000.0,,48436000000.0,,53515000000.0,,48002000000.0,,45664000000.0,,404090000.0,
Despesas/Receitas Operacionais - (R$),-86211000000.0,-482.55,,-94969000000.0,,-85836000000.0,,-30097000000.0,,-40660000000.0,,-44176000000.0,,-36245000000.0,,-27250000000.0,,-27571000000.0,,-36099000000.0,,-29751000000.0,,-27634000000.0,,7223720000.0,
"EBITDA - (R$)
format_quote",45141000000.0,,,8959000000.0,,34804000000.0,,,,,,,,,,,,,,,,,,,,,
"Amortização/Depreciação
format_quote",-3866000000.0,,,-3729000000.0,,-3561000000.0,,,,,,,,,,,,,,,,,,,,,
"EBIT - (R$)
format_quote",41275000000.0,136.37,,5230000000.0,,31243000000.0,,30608000000.0,,30582000000.0,,35679000000.0,,18265000000.0,,28808000000.0,,20865000000.0,,17416000000.0,,18251000000.0,,18030000000.0,,7627820000.0,
"Resultado não operacional - (R$)
format_quote",0.0,,,,,0.0,,0.0,,0.0,,0.0,,0.0,,0.0,,0.0,,0.0,,0.0,,0.0,,,
"Resultado Financeiro - (R$)
format_quote",0.0,,,,,,,,,,,,,,,,,,,,,,,,,,
Impostos - (R$),-13027000000.0,-7856.33,,9834000000.0,,-3430000000.0,,-4969000000.0,,-7357000000.0,,-13663000000.0,,7891000000.0,,-6947000000.0,,-4343000000.0,,-4225000000.0,,-3641000000.0,,-5536000000.0,,71370000.0,
"Lucro Líquido - (R$)
format_quote",28248000000.0,62.11,,15064000000.0,,27813000000.0,,25639000000.0,,23225000000.0,,22016000000.0,,26156000000.0,,21861000000.0,,16522000000.0,,13191000000.0,,14610000000.0,,12494000000.0,,7706910000.0,
Lucro atribuído a Controladora,27802000000.0,,,18896000000.0,,27113000000.0,,24907000000.0,,23193000000.0,,21627000000.0,,25740000000.0,,21555000000.0,,16424000000.0,,12634000000.0,,13837000000.0,,786000000.0,,,
Lucro atribuído a Não Controladores,1238000000.0,,,,,700000000.0,,732000000.0,,32000000.0,,389000000.0,,416000000.0,,306000000.0,,98000000.0,,557000000.0,,773000000.0,,11708000000.0,,,
"CAPEX - (R$)
format_quote",0.0,,,,,,,,,,,,,,,,,,,,,,,,,,
"Dívida Bruta - (R$)
format_quote",,,,,,,,,,,,,,,,,,,,,,,,,,,
"Dívida Líquida - (R$)
format_quote",,,,,,,,,,,,,,,,,,,,,,,,,,,
"ROE - (%)
format_quote",18.29,45.72,,9.75,,18.61,,17.04,,15.69,,16.33,,22.93,,21.73,,19.62,,17.36,,18.64,,17.69,,12.14,
"ROIC - (%)
format_quote",,,,,,,,,,,,,,,,,,,,,,20.04,,,,,
"Margem Bruta - (%)
format_quote",69.9,-35.11,,57.67,,60.65,,46.23,,47.63,,45.64,,42.07,,43.44,,51.09,,52.68,,46.33,,55.35,,85.3,
Margem Ebitda - (%),24.75,,,5.16,,18.03,,,,,,,,,,,,,,,,,,,,,
"Margem Líquida - (%)
format_quote",15.49,-99.07,,8.67,,14.41,,19.52,,15.53,,12.58,,20.19,,16.94,,17.43,,12.99,,14.1,,15.14,,1630.0,
"Dívida Líquida/Ebitda
format_quote",,,,,,,,,,,,,,,,,,,,,,,,,,,
