INDICADORES DE ENDIVIDAMENTO,ATUAL,2020,2019,2018,2017,2016,2015,2014,2013,2012,2011,2010
DÍV. LÍQUIDA/PL,,,,,,,,,,,,
DÍV. LÍQUIDA/EBITDA,,,,,,,,,,,,
DÍV. LÍQUIDA/EBIT,,,,,,,,,,,,
PL/ATIVOS,0.09,0.09,0.09,0.09,0.1,0.1,0.1,0.1,0.1,0.11,0.12,0.12
PASSIVOS/ATIVOS,0.91,0.92,0.91,0.91,0.9,0.9,0.9,0.9,0.9,0.89,0.88,0.88
LIQ. CORRENTE,2.07,2.34,0.04,,,,,,,,,
