INDICADORES DE CRESCIMENTO,ATUAL,2020,2019,2018,2017,2016,2015,2014,2013,2012,2011,2010
CAGR RECEITAS 5 ANOS,-5.25,-5.25,1.64,6.29,9.3,12.86,16.03,,,,,
CAGR LUCROS 5 ANOS,0.33,-6.76,15.39,3.93,5.6,-4.85,2.97,,,,,
