#,2020,AH %,empty_3,2019,empty_6,2018,empty_9,2017,empty_12,2016,empty_14
Ativo Total - (R$),53295000000.0,6.0,,57991000000.0,,52849000000.0,,47928000000.0,,45217000000.0,
Ativo Circulante - (R$),17641000000.0,4.96,,19892000000.0,,36304000000.0,,33220000000.0,,31651000000.0,
Aplicações Financeiras - (R$),0.0,,,0.0,,0.0,,0.0,,0.0,
Caixa e Equivalentes de Caixa - (R$),8711000000.0,-25.82,,7954000000.0,,4369000000.0,,3792000000.0,,5112000000.0,
Contas a Receber - (R$),1051000000.0,34.98,,1108000000.0,,686000000.0,,903000000.0,,669000000.0,
Estoque - (R$),6536000000.0,,,8625000000.0,,5909000000.0,,4822000000.0,,,
Ativo Não Circulante - (R$),35654000000.0,8.42,,38099000000.0,,16545000000.0,,14708000000.0,,13566000000.0,
Ativo Realizável a Longo Prazo - (R$),4713000000.0,61.53,,4338000000.0,,3997000000.0,,3452000000.0,,2137000000.0,
Investimentos - (R$),4889000000.0,-41.59,,3612000000.0,,223000000.0,,198000000.0,,339000000.0,
Imobilizado - (R$),19888000000.0,-0.48,,22709000000.0,,9650000000.0,,9138000000.0,,9182000000.0,
Intangível - (R$),6164000000.0,0.84,,7440000000.0,,2675000000.0,,1924000000.0,,1908000000.0,
Passivo Total - (R$),53295000000.0,6.0,,57991000000.0,,52849000000.0,,47928000000.0,,45217000000.0,
Passivo Circulante - (R$),18483000000.0,,,23135000000.0,,32785000000.0,,28992000000.0,,0.0,
Passivo Não Circulante - (R$),18005000000.0,12.03,,21345000000.0,,6125000000.0,,5644000000.0,,5038000000.0,
Patrimônio Líquido Consolidado - (R$),16807000000.0,5.52,,13511000000.0,,13939000000.0,,13292000000.0,,12597000000.0,
Capital Social Realizado - (R$),5434000000.0,0.16,,6857000000.0,,6825000000.0,,6822000000.0,,6811000000.0,
Reserva Capital - (R$),479000000.0,7.25,,447000000.0,,413000000.0,,355000000.0,,331000000.0,
Reserva Lucros - (R$),6090000000.0,16.78,,3529000000.0,,3911000000.0,,3174000000.0,,2718000000.0,
Participação dos Não Controladores,3112000000.0,,,2571000000.0,,2856000000.0,,2853000000.0,,,
