INDICADORES DE RENTABILIDADE,ATUAL,2020,2019,2018,2017,2016,2015,2014,2013,2012,2011,2010,2009,2008
ROE,16.49,15.91,7.22,10.76,5.56,-3.83,1.98,8.33,11.06,9.5,9.42,8.7,9.2,4.77
ROA,4.4,4.09,1.36,2.26,1.21,-1.07,0.56,2.65,2.77,2.97,2.13,2.07,3.27,1.9
ROIC,6.14,7.58,6.11,8.88,6.63,4.51,6.48,12.76,11.66,10.9,9.66,7.76,7.88,6.49
GIRO ATIVOS,0.74,0.96,0.98,0.93,0.93,0.92,0.79,1.44,1.52,1.44,1.38,1.07,1.24,1.31
