#,2020,AH %,2019,2018,2017,2016
Caixa Líquido Atividades Operacionais - (R$),1606000000.0,-28.49,660910000.0,1312280000.0,968390000.0,1354220000.0
Caixa Gerado nas Operações - (R$),1300340000.0,20.19,682560000.0,793670000.0,782770000.0,651280000.0
Lucro Líquido - (R$),982820000.0,59.77,1115120000.0,248130000.0,425740000.0,266470000.00000003
Equivalência Patrimonial - (R$),7460000.0,152.48,5610000.0,4350000.0,7300000.0,-13900000.0
Depreciação e Amortização - (R$),150110000.0,3.54,151310000.0,169610000.0,137090000.0,132400000.0
Variações nos Ativos e Passivos - (R$),603430000.0,-63.04,722760000.0,614780000.0,323860000.0,876150000.0
Caixa Líquido Atividades de Investimento - (R$),-145600000.0,50.86,2157510000.0,-430130000.0,-243260000.0,-495020000.0
Fluxo de Caixa Livre - (R$),,,,,,
Caixa Líquido Atividades de Financiamento - (R$),-1186980000.0,47.07,-2143989999.9999998,-684540000.0,-313830000.0,-592960000.0
Variação Cambial de Caixa e Equivalentes - (R$),0.0,,0.0,0.0,0.0,0.0
Aumento de Caixa e Equivalentes - (R$),273410000.0,54.49,674430000.0,197610000.0,411310000.0,266240000.0
Saldo Inicial de Caixa e Equivalentes - (R$),1633580000.0,54.32,959160000.0,1167660000.0,756350000.0,490110000.0
Saldo Final de Caixa e Equivalentes - (R$),1907000000.0,54.38,1633580000.0,1365260000.0,1167660000.0,756350000.0
