INDICADORES DE RENTABILIDADE,ATUAL,2020,2019,2018,2017,2016,2015,2014,2013,2012,2011,2010,2009
ROE,48.54,36.97,58.79,8.25,19.47,12.94,12.26,35.4,34.57,29.88,21.49,37.9,21.77
ROA,12.25,10.03,23.25,2.32,5.6,4.19,4.25,11.21,12.36,10.16,7.01,12.78,8.18
ROIC,33.12,31.87,9.01,6.74,6.41,3.14,6.49,31.85,33.18,29.62,16.51,34.93,24.79
GIRO ATIVOS,1.39,1.3,1.01,0.8,0.78,0.79,1.39,1.53,1.42,1.42,1.42,1.52,1.53
