INDICADORES DE VALUATION,ATUAL,2020,2019,2018,2017,2016,2015,2014,2013,2012,2011
D.Y,5.69,16.35,6.62,2.92,11.15,,5.89,19.99,9.27,6.85,5.13
P/L,13.13,17.21,8.68,42.44,17.2,15.38,12.31,8.37,7.69,8.2,14.31
PEG RATIO,-0.42,-0.29,,-0.72,0.43,1.76,-0.21,-0.66,0.23,0.13,
P/VP,6.38,6.36,5.1,3.5,3.35,1.99,1.51,2.96,2.66,2.45,3.08
EV/EBITDA,6.69,8.62,7.39,15.86,13.2,9.57,6.35,4.63,4.18,4.43,8.16
EV/EBIT,7.54,10.0,19.93,26.52,22.95,23.88,8.97,5.33,4.81,5.24,11.68
P/EBITDA,8.84,10.79,8.08,19.18,13.82,9.05,6.07,4.9,5.08,4.83,10.23
P/EBIT,9.95,12.53,21.8,32.09,24.03,22.59,8.56,5.64,5.85,5.71,14.65
VPA,1.33,1.28,2.01,1.46,1.49,1.6,1.56,1.33,1.56,1.35,1.1
P/ATIVO,1.61,1.73,2.02,0.99,1.09,0.73,0.54,0.96,0.95,0.83,1.0
LPA,0.65,0.47,1.18,0.12,0.29,0.21,0.19,0.47,0.54,0.4,0.24
P/SR,1.16,1.32,1.99,1.24,1.24,0.82,0.38,0.61,0.67,0.59,0.71
P/CAP. GIRO,17.25,16.68,9.49,6.7,8.91,7.08,6.21,7.69,5.39,5.63,9.99
P/ATIVO CIRC. LIQ.,-7.29,-7.3,-8.88,-4.96,-3.57,-2.09,-1.49,-3.32,-3.53,-2.94,-2.97
