INDICADORES DE CRESCIMENTO,ATUAL,2020,2019,2018,2017,2016,2015,2014,2013,2012,2011,2010,2009
CAGR RECEITAS 5 ANOS,-0.28,-0.28,-4.33,-7.88,-6.51,-4.65,4.91,7.67,,,,,
CAGR LUCROS 5 ANOS,27.6,19.96,20.14,-25.98,-6.39,-3.3,-14.3,14.71,,,,,
