#,"ÚLT. 12M
3T2020 - 2T2021",AH %,empty_3,2020,empty_6,2019,empty_9,2018,empty_12,2017,empty_15,2016,empty_18,2015,empty_21,2014,empty_24,2013,empty_27,2012,empty_30,2011,empty_33,2010,empty_36,2009,empty_39,2008,empty_41
"Receita Líquida - (R$)
format_quote",99735220000.0,65.53,,62774940000.0,,72841060000.0,,70478390000.0,,71418350000.0,,77146080000.0,,69870200000.0,,58923920000.0,,51217050000.0,,52643540000.0,,51716180000.0,,40909200000.0,,39342960000.0,,23767810000.0,
Custos - (R$),-81663440000.0,39.3,,-18332230000.0,,-28519950000.0,,-28557050000.0,,-36471860000.0,,-46559580000.0,,-38533090000.0,,-31695400000.0,,-22737830000.0,,-21056580000.0,,-23920100000.0,,-16814130000.000002,,-17175869999.999998,,-12329850000.0,
"Lucro Bruto - (R$)
format_quote",18071780000.0,93.8,,44442710000.0,,44321110000.0,,41921340000.0,,34946490000.0,,30586490000.0,,31337110000.0,,27228510000.0,,28479220000.0,,31586960000.0,,27796080000.0,,24095080000.0,,22167090000.0,,11437970000.0,
Despesas/Receitas Operacionais - (R$),11567340000.0,-57.83,,-34778740000.0,,-22047960000.0,,-26011570000.0,,-20432810000.0,,-14202590000.0,,-34552830000.0,,-20785180000.0,,-24460960000.0,,-26112040000.0,,-19022260000.0,,-14098580000.0,,-14029960000.0,,-8889140000.0,
"EBITDA - (R$)
format_quote",0.0,,,,,24665010000.0,,,,,,,,,,,,,,,,,,,,,,,
"Amortização/Depreciação
format_quote",0.0,,,,,-2391860000.0,,,,,,,,,,,,,,,,,,,,,,,
"EBIT - (R$)
format_quote",29639120000.0,219.25,,9663980000.0,,22273150000.0,,15909770000.0,,14513680000.0,,16383900000.0,,-3215720000.0,,6443330000.0,,4018260000.0,,5474930000.0,,8773820000.0,,9996500000.0,,8137130000.0,,2548830000.0,
"Resultado não operacional - (R$)
format_quote",0.0,,,,,0.0,,0.0,,0.0,,0.0,,0.0,,0.0,,0.0,,0.0,,0.0,,0.0,,0.0,,0.0,
"Resultado Financeiro - (R$)
format_quote",0.0,,,,,,,,,,,,,,,,,,,,,,,,,,,,
Impostos - (R$),-11703810000.0,1444.69,,3786780000.0,,-5641700000.0,,-3109850000.0,,-5375640000.0,,-8918980000.0,,13049540000.0,,-735550000.0,,-233600000.0,,-37010000.0,,-1100920000.0,,-2613930000.0,,-2629170000.0,,-170210000.0,
"Lucro Líquido - (R$)
format_quote",16202670000.0,131.56,,13450750000.0,,16631450000.0,,12799920000.0,,9138050000.0,,7464920000.0,,9833830000.0,,5707780000.0,,5848120000.0,,5493220000.0,,7747130000.0,,7382570000.0,,5507960000.0,,2378630000.0,
Lucro atribuído a Controladora,11852060000.0,131.57,,13418530000.0,,16406930000.0,,12582480000.0,,8924060000.0,,7334560000.0,,9783740000.0,,5630020000.0,,5723490000.0,,5482610000.0,,7739200000.0,,7382090000.0,,5507610000.0,,2378400000.0,
Lucro atribuído a Não Controladores,24350000.0,54.98,,,,224520000.0,,217440000.0,,213980000.0,,130360000.00000001,,50090000.0,,77750000.0,,124630000.0,,10620000.0,,7930000.0,,480000.0,,360000.0,,230000.0,
"CAPEX - (R$)
format_quote",0.0,,,,,,,,,,,,,,,,,,,,,,,,,,,,
"Dívida Bruta - (R$)
format_quote",,,,,,,,,,,,,,,,,,,,,,,,,,,,,
"Dívida Líquida - (R$)
format_quote",,,,,,,,,,,,,,,,,,,,,,,,,,,,,
"ROE - (%)
format_quote",15.23,66.67,,15.85,,17.11,,13.97,,10.49,,8.8,,12.32,,7.25,,7.16,,6.73,,9.93,,10.06,,7.95,,4.77,
"ROIC - (%)
format_quote",,,,,,1.73,,,,,,,,,,,,,,,,,,,,,,,
"Margem Bruta - (%)
format_quote",18.12,17.08,,70.8,,60.85,,59.48,,48.93,,39.65,,44.85,,46.21,,55.6,,60.0,,53.75,,58.9,,56.34,,48.12,
Margem Ebitda - (%),,,,,,33.86,,,,,,,,,,,,,,,,,,,,,,,
"Margem Líquida - (%)
format_quote",16.25,39.86,,21.43,,22.83,,18.16,,12.8,,9.68,,14.07,,9.69,,11.42,,10.43,,14.98,,18.05,,14.0,,10.01,
"Dívida Líquida/Ebitda
format_quote",,,,,,,,,,,,,,,,,,,,,,,,,,,,,
