INDICADORES DE EFICIÊNCIA,ATUAL,2020,2019,2018,2017,2016,2015,2014,2013,2012,2011,2010,2009,2008
M. BRUTA,67.8,56.04,53.72,67.4,73.54,78.11,77.24,76.78,79.96,77.75,68.52,73.94,85.37,80.77
M. EBITDA,68.31,56.39,54.45,68.47,75.69,,77.05,74.1,77.55,75.36,62.83,70.35,79.44,
M. EBIT,66.47,54.04,53.24,63.36,69.61,79.9,72.12,71.47,74.81,72.5,60.84,69.93,79.44,75.88
M. LÍQUIDA,19.7,15.34,19.39,20.54,21.51,20.0,14.0,24.69,22.45,18.35,15.7,20.57,17.89,13.28
