INDICADORES DE RENTABILIDADE,ATUAL,2020,2019,2018,2017,2016,2015,2014,2013,2012,2011,2010,2009,2008
ROE,21.13,16.38,17.8,8.94,8.52,10.72,8.33,14.79,11.29,13.49,12.43,12.12,10.09,17.13
ROA,5.59,4.17,4.6,2.65,2.89,3.04,2.09,4.06,3.47,2.96,2.96,3.39,2.77,2.61
ROIC,18.28,14.02,11.83,8.04,9.52,12.27,11.49,12.66,11.34,11.69,11.18,10.82,11.39,14.86
GIRO ATIVOS,0.28,0.27,0.24,0.13,0.13,0.15,0.15,0.16,0.15,0.16,0.19,0.17,0.15,0.2
