INDICADORES DE RENTABILIDADE,ATUAL,2020,2019,2018,2017,2016
ROE,0.46,-6.27,0.04,15.57,9.63,-17.1
ROA,0.17,-2.28,0.02,4.99,2.85,-3.89
ROIC,1.08,-6.56,13.47,27.25,24.99,-8.59
GIRO ATIVOS,0.68,0.56,0.88,1.49,1.48,1.32
