#,2020,AH %,empty_3,2019,empty_6,2018,empty_9,2017,empty_12,2016,empty_14
Ativo Total - (R$),1372140000000.0,2.71,,1378530000000.0,,1305540000000.0,,1224350000000.0,,1192030000000.0,
Ativo Circulante - (R$),107600000000.0,12.66,,109610000000.0,,107210000000.0,,81740000000.0,,72550000000.0,
Aplicações Financeiras - (R$),0.0,-1.48,,77820000000.0,,1094349999999.9999,,819130000000.0,,831400000000.0,
Caixa e Equivalentes de Caixa - (R$),0.0,12.66,,18190000000.0,,107210000000.0,,81740000000.0,,72550000000.0,
Contas a Receber - (R$),,,,118840000000.0,,,,,,,
Estoque - (R$),,,,0.0,,0.0,,0.0,,0.0,
Ativo Não Circulante - (R$),1358930000000.0,-1.48,,1147840000000.0,,1094349999999.9999,,819130000000.0,,831400000000.0,
Ativo Realizável a Longo Prazo - (R$),,,,,,,,,,,
Investimentos - (R$),7390000000.0,17.92,,7640000000.0,,8130000000.000001,,8260000000.0,,7000000000.0,
Imobilizado - (R$),14070000000.0,0.42,,14660000000.0,,8830000000.0,,8430000000.0,,8400000000.0,
Intangível - (R$),14670000000.0,2.42,,14720000000.0,,16129999999.999998,,16180000000.0,,15800000000.0,
Passivo Total - (R$),1604650000000.0,2.71,,1378530000000.0,,1305540000000.0,,1224350000000.0,,1192030000000.0,
Passivo Circulante - (R$),18700000000.0,,,665270000000.0,,,,,,,
Passivo Não Circulante - (R$),1086250000000.0,,,347930000000.0,,,,,,,
Patrimônio Líquido Consolidado - (R$),146120000000.0,11.58,,135539999999.99998,,124680000000.0,,117690000000.0,,105480000000.0,
Capital Social Realizado - (R$),79100000000.0,15.66,,75100000000.0,,67099999999.99999,,59100000000.0,,51100000000.0,
Reserva Capital - (R$),10000000.0,0.0,,-330000000.0,,-330000000.0,,-330000000.0,,-330000000.0,
Reserva Lucros - (R$),58970000000.0,-1.09,,51990000000.0,,53270000000.0,,49480000000.0,,50030000000.0,
Participação dos Não Controladores,500000000.0,63.99,,440000000.0,,400000000.0,,290000000.0,,180000000.0,
