INDICADORES DE VALUATION,ATUAL,2020,2019,2018,2017,2016,2015,2014,2013,2012,2011
D.Y,6.01,2.61,5.68,2.97,3.18,1.24,7.36,3.7,2.97,2.89,3.48
P/L,8.93,15.01,13.87,15.66,12.1,9.0,5.37,9.63,9.87,11.91,10.73
PEG RATIO,0.26,-0.63,,-5.3,-2.69,-6.84,0.29,0.41,1.01,3.91,
P/VP,1.33,1.68,2.18,2.14,1.87,1.6,1.09,1.81,1.73,1.92,2.12
EV/EBITDA,,,15.66,,,,,,,,
EV/EBIT,6.5,55.87,21.16,12.53,8.48,5.06,10.46,7.55,8.97,8.56,7.33
P/EBITDA,,,16.13,,,,,,,,
P/EBIT,6.98,59.07,21.8,13.36,8.71,5.05,10.14,7.63,8.55,8.71,8.05
VPA,15.07,16.2,16.58,18.02,18.08,18.09,17.61,19.37,16.86,18.31,14.53
P/ATIVO,0.14,0.18,0.25,0.23,0.2,0.15,0.1,0.15,0.14,0.16,0.16
LPA,2.24,1.81,2.61,2.47,2.8,3.22,3.59,3.64,2.95,2.95,2.87
P/SR,2.19,2.45,2.35,2.31,1.5,0.99,0.85,1.48,1.58,1.57,1.39
P/CAP. GIRO,2.43,1.39,-3.13,-3.3,-1.47,-0.83,-0.72,-2.42,-1.91,-2.09,2.02
P/ATIVO CIRC. LIQ.,-0.15,-0.2,-0.51,-0.5,-0.4,-0.29,-0.21,-0.39,-0.34,-0.42,-0.47
