#,"ÚLT. 12M
3T2020 - 2T2021",AH %,empty_3,2020,empty_6,2019,empty_9,2018,empty_12,2017,empty_15,2016,empty_17
"Receita Líquida - (R$)
format_quote",611580000.0,6.31,,488210000.0,,385720000.0,,314980000.0,,293170000.0,,275780000.0,
Custos - (R$),-340590000.0,2.18,,-282890000.0,,-224400000.0,,-174490000.0,,-164450000.0,,-160950000.0,
"Lucro Bruto - (R$)
format_quote",270990000.0,12.09,,205330000.0,,161320000.0,,140490000.0,,128710000.00000001,,114830000.0,
Despesas/Receitas Operacionais - (R$),-230830000.0,0.31,,-161140000.0,,-108380000.0,,-104140000.0,,-98360000.0,,-98670000.0,
"EBITDA - (R$)
format_quote",107790000.0,27.54,,100780000.0,,106850000.0,,73130000.0,,69150000.0,,54210000.0,
"Amortização/Depreciação
format_quote",-67630000.0,1.94,,-56590000.0,,-53910000.0,,-36780000.0,,-38790000.0,,-38050000.0,
"EBIT - (R$)
format_quote",40160000.0,87.82,,44190000.0,,52940000.0,,36350000.0,,30350000.0,,16160000.0,
"Resultado não operacional - (R$)
format_quote",0.0,,,,,0.0,,0.0,,0.0,,0.0,
"Resultado Financeiro - (R$)
format_quote",-13720000.0,25.72,,-14480000.0,,-28670000.0,,-16250000.0,,-13650000.0,,-18370000.0,
Impostos - (R$),-14470000.0,142.9,,-9970000.0,,-6210000.0,,-9220000.0,,-6670000.0,,-2750000.0,
"Lucro Líquido - (R$)
format_quote",11970000.0,302.6,,19740000.0,,18070000.0,,10890000.0,,10040000.0,,-4960000.0,
Lucro atribuído a Controladora,11970000.0,302.49,,19740000.0,,18070000.0,,10890000.0,,10070000.0,,-4970000.0,
Lucro atribuído a Não Controladores,0.0,-268.75,,0.0,,0.0,,0.0,,-27000.0,,16000.0,
"CAPEX - (R$)
format_quote",0.0,,,,,,,,,,,,
"Dívida Bruta - (R$)
format_quote",125340000.0,-20.73,,154100000.0,,186730000.0,,82500000.0,,68090000.0,,85890000.0,
"Dívida Líquida - (R$)
format_quote",-1767930000.0,,,,,,,,,,,,
"ROE - (%)
format_quote",0.4,265.47,,2.93,,20.46,,17.82,,19.84,,-11.99,
"ROIC - (%)
format_quote",0.83,89.19,,4.13,,16.99,,18.9,,19.96,,10.55,
"Margem Bruta - (%)
format_quote",44.31,5.43,,42.06,,41.82,,44.6,,43.9,,41.64,
Margem Ebitda - (%),17.62,19.99,,20.64,,27.7,,23.22,,23.59,,19.66,
"Margem Líquida - (%)
format_quote",1.96,290.0,,4.04,,4.69,,3.46,,3.42,,-1.8,
"Dívida Líquida/Ebitda
format_quote",-16.4,,,,,,,,,,,,
