#,2020,AH %,empty_3,2019,empty_6,2018,empty_9,2017,empty_12,2016,empty_14
Ativo Total - (R$),2824640000.0,-4.88,,1945400000.0,,1789530000.0,,1733860000.0,,1822890000.0,
Ativo Circulante - (R$),2211240000.0,-0.29,,1471760000.0,,1418740000.0,,1411330000.0,,1415470000.0,
Aplicações Financeiras - (R$),0.0,,,0.0,,0.0,,0.0,,0.0,
Caixa e Equivalentes de Caixa - (R$),544160000.0,-18.93,,460710000.0,,393350000.0,,387830000.0,,478380000.0,
Contas a Receber - (R$),698040000.0,-4.17,,258640000.0,,235280000.0,,276250000.0,,288280000.0,
Estoque - (R$),645750000.0,8.14,,494420000.0,,534730000.0,,506540000.0,,468390000.0,
Ativo Não Circulante - (R$),613400000.0,-20.84,,473640000.0,,370790000.0,,322530000.0,,407430000.0,
Ativo Realizável a Longo Prazo - (R$),337590000.0,-35.37,,206350000.0,,192540000.0,,149660000.0,,231550000.0,
Investimentos - (R$),91690000.0,-17.77,,73430000.0,,48090000.0,,53600000.0,,65190000.0,
Imobilizado - (R$),86300000.0,10.56,,88720000.0,,50750000.0,,57090000.0,,51640000.0,
Intangível - (R$),97820000.0,5.28,,105140000.0,,79420000.0,,62170000.0,,59050000.0,
Passivo Total - (R$),2824640000.0,-4.88,,1945400000.0,,1789530000.0,,1733860000.0,,1822890000.0,
Passivo Circulante - (R$),1370930000.0,1.7,,1178940000.0,,1111890000.0,,1090780000.0,,1072599999.9999999,
Passivo Não Circulante - (R$),420570000.0,-28.45,,231570000.0,,167740000.0,,136700000.0,,191050000.0,
Patrimônio Líquido Consolidado - (R$),1033140000.0000001,-9.45,,534890000.0,,509910000.0,,506380000.0,,559250000.0,
Capital Social Realizado - (R$),721670000.0,0.0,,389000000.0,,389000000.0,,389000000.0,,389000000.0,
Reserva Capital - (R$),106090000.0,7.62,,106790000.0,,99890000.0,,95400000.0,,88650000.0,
Reserva Lucros - (R$),211230000.0,-44.0,,68690000.0,,61840000.0,,67069999.99999999,,119770000.0,
Participação dos Não Controladores,11220000.0,,,7870000.0,,920000.0,,0.0,,0.0,
