#,2020,AH %,2019,2018,2017,2016
Caixa Líquido Atividades Operacionais - (R$),,-1170.12,58542670000.0,28442400000.0,-46925240000.0,4385040000.0
Caixa Gerado nas Operações - (R$),,-8.11,40007960000.0,38655380000.0,41607320000.0,45280110000.0
Lucro Líquido - (R$),13292880000.0,41.75,18888320000.0,15086100000.0,12275300000.0,8659580000.0
Equivalência Patrimonial - (R$),,,,,,
Depreciação e Amortização - (R$),,-4.71,3986400000.0,3052170000.0,3579230000.0,3756300000.0
Variações nos Ativos e Passivos - (R$),163642460000.0,-116.49,18534710000.0,-10212980000.0,-88532560000.0,-40895070000.0
Caixa Líquido Atividades de Investimento - (R$),-95707600000.0,-197.0,-30587070000.0,-5255800000.0,-6381490000.0,6578880000.0
Caixa Líquido Atividades de Financiamento - (R$),-17334910000.0,-125.32,-16165990000.0,-12577970000.0,-2671370000.0,-1185580000.0
Variação Cambial de Caixa e Equivalentes - (R$),10320670000.0,100.39,-158790000.0,2522420000.0,36150000.0,-9361700000.0
Aumento de Caixa e Equivalentes - (R$),104253490000.0,-13527.02,11630820000.0,13131050000.0,-55941950000.0,416640000.0
Saldo Inicial de Caixa e Equivalentes - (R$),71936020000.0,0.41,60305200000.0,47174160000.0,103116100000.0,102699470000.0
Saldo Final de Caixa e Equivalentes - (R$),176189510000.0,-54.25,71936020000.0,60305200000.0,47174160000.0,103116100000.0
