#,2020,AH %,empty_3,2019,empty_6,2018,empty_9,2017,empty_12,2016,empty_14
Ativo Total - (R$),46784660000.0,8.96,,38312550000.0,,35930100000.0,,33162379999.999996,,30434210000.0,
Ativo Circulante - (R$),11407430000.0,29.5,,7909200000.0,,6677850000.0,,5701830000.0,,4402990000.0,
Aplicações Financeiras - (R$),1660000.0,-80.01,,3260000.0,,125070000.0,,60710000.0,,303690000.0,
Caixa e Equivalentes de Caixa - (R$),3222770000.0,5.91,,2941730000.0,,1948410000.0,,1040079999.9999999,,982070000.0,
Contas a Receber - (R$),5100940000.0,39.4,,4358220000.0,,4134270000.0000005,,3750700000.0,,2690610000.0,
Estoque - (R$),162790000.0,,,130440000.0,,116290000.0,,110560000.0,,,
Ativo Não Circulante - (R$),35377230000.0,5.41,,30403350000.0,,29252250000.0,,27460540000.0,,26051660000.0,
Ativo Realizável a Longo Prazo - (R$),16222800000.0,3.54,,10955460000.0,,10014260000.0,,8607630000.0,,8313030000.000001,
Investimentos - (R$),2729520000.0,9.65,,2523180000.0,,2368230000.0,,2570640000.0,,2344510000.0,
Imobilizado - (R$),9495460000.0,10.02,,10592100000.0,,10840660000.0,,9829450000.0,,8934300000.0,
Intangível - (R$),6929460000.0,-0.11,,6332610000.0,,6029100000.0,,6452820000.0,,6459810000.0,
Passivo Total - (R$),46784660000.0,8.96,,38312550000.0,,35930100000.0,,33162379999.999996,,30434210000.0,
Passivo Circulante - (R$),9654390000.0,,,5345620000.0,,6695110000.0,,6109910000.0,,0.0,
Passivo Não Circulante - (R$),16879750000.0,19.94,,15368720000.0,,12898770000.0,,11541960000.0,,9622730000.0,
Patrimônio Líquido Consolidado - (R$),20250520000.0,2.34,,17598210000.0,,16336210000.0,,15510500000.0,,15155450000.0,
Capital Social Realizado - (R$),10800000000.0,0.0,,10800000000.0,,7910000000.0,,7910000000.0,,7910000000.0,
Reserva Capital - (R$),0.0,,,0.0,,0.0,,0.0,,0.0,
Reserva Lucros - (R$),8805760000.0,7.5,,5860490000.0,,7337320000.0,,6402240000.0,,5955700000.0,
Participação dos Não Controladores,291410000.0,,,345800000.0,,303290000.0,,302660000.0,,,
