INDICADORES DE ENDIVIDAMENTO,ATUAL,2020,2019,2018,2017,2016,2015,2014,2013,2012,2011,2010,2009,2008
DÍV. LÍQUIDA/PL,0.4,0.34,0.5,0.59,0.57,0.5,0.41,0.35,0.19,0.09,0.05,-0.04,-0.02,-0.01
DÍV. LÍQUIDA/EBITDA,1.64,1.31,2.07,,,,,2.05,1.31,0.71,,-0.26,-0.14,-0.05
DÍV. LÍQUIDA/EBIT,1.95,1.58,2.7,3.96,4.08,3.8,2.76,2.8,1.96,1.11,0.4,-0.39,-0.2,-0.07
PL/ATIVOS,0.43,0.43,0.45,0.45,0.46,0.5,0.49,0.53,0.56,0.58,0.62,0.62,0.63,0.61
PASSIVOS/ATIVOS,0.57,0.57,0.54,0.55,0.53,0.5,0.5,0.47,0.44,0.41,0.37,0.37,0.35,0.37
LIQ. CORRENTE,1.03,1.18,1.48,1.0,0.93,,1.45,,,1.66,1.8,1.64,2.1,1.84
