#,2020,AH %,empty_3,2019,empty_6,2018,empty_9,2017,empty_12,2016,empty_14
Ativo Total - (R$),47709460000.0,32.54,,33269040000.0,,28304660000.0,,27536390000.0,,20775990000.0,
Ativo Circulante - (R$),31567860000.0,50.72,,18908710000.0,,17513620000.0,,17604750000.0,,11680720000.0,
Aplicações Financeiras - (R$),7622060000.0,69.77,,4314810000.0,,3295850000.0,,6517530000.0,,3838950000.0,
Caixa e Equivalentes de Caixa - (R$),14009150000.0,581.56,,6291720000.0,,6813850000.0,,3567550000.0,,523440000.00000006,
Contas a Receber - (R$),3365280000.0,-7.4,,2321050000.0,,1870080000.0,,1977860000.0,,2135940000.0,
Estoque - (R$),4122460000.0,-2.16,,3558530000.0,,3506680000.0,,3608450000.0,,3688060000.0,
Ativo Não Circulante - (R$),16141600000.0,9.2,,14360330000.0,,10791040000.0,,9931640000.0,,9095280000.0,
Ativo Realizável a Longo Prazo - (R$),4550900000.0,12.71,,4072130000.0,,3380090000.0,,2899250000.0,,2572290000.0,
Investimentos - (R$),0.0,,,0.0,,0.0,,0.0,,0.0,
Imobilizado - (R$),6860410000.0,13.67,,6315480000.0,,3647720000.0,,3283050000.0,,2888340000.0,
Intangível - (R$),4730290000.0,3.16,,3972720000.0,,3763220000.0,,3749350000.0,,3634640000.0,
Passivo Total - (R$),47709460000.0,32.54,,33269040000.0,,28304660000.0,,27536390000.0,,20775990000.0,
Passivo Circulante - (R$),12088060000.0,29.2,,10557820000.0,,8346639999.999999,,9655090000.0,,7472810000.0,
Passivo Não Circulante - (R$),19750830000.0,16.03,,15331350000.0,,13615780000.0,,11775040000.0,,10148050000.0,
Patrimônio Líquido Consolidado - (R$),15870580000.0,93.53,,7379870000.0,,6286130000.0,,6106260000.0,,3155130000.0,
Capital Social Realizado - (R$),12014780000.0,172.36,,4009960000.0,,3957960000.0,,3926520000.0,,1441670000.0,
Reserva Capital - (R$),-751670000.0,55.14,,102530000.0,,90310000.0,,71590000.0,,46140000.0,
Reserva Lucros - (R$),1048310000.0,23.83,,1055140000.0000001,,845540000.0,,597150000.0,,482210000.0,
Participação dos Não Controladores,3559160000.0,27.47,,2212240000.0,,1361530000.0,,1484580000.0,,1164680000.0,
