INDICADORES DE ENDIVIDAMENTO,ATUAL,2020,2019,2018,2017,2016,2015,2014,2013,2012,2011,2010,2009
DÍV. LÍQUIDA/PL,0.69,0.03,1.4,1.13,1.2,3.64,2.82,2.05,3.07,3.89,3.79,4.71,9.91
DÍV. LÍQUIDA/EBITDA,1.73,0.15,2.36,2.1,2.27,2.71,1.98,1.66,2.07,2.09,1.98,1.73,1.72
DÍV. LÍQUIDA/EBIT,3.91,0.26,3.43,3.24,3.31,3.56,2.54,2.05,2.48,2.53,2.31,1.94,2.05
PL/ATIVOS,0.15,0.26,0.16,0.17,0.17,0.1,0.08,0.1,0.08,0.07,0.07,0.06,0.03
PASSIVOS/ATIVOS,0.63,0.67,0.78,0.78,0.78,0.85,0.86,0.82,0.89,0.89,0.88,0.93,0.96
LIQ. CORRENTE,2.05,2.61,1.79,2.1,1.82,1.56,1.61,1.54,1.64,1.48,1.48,1.32,1.52
