INDICADORES DE EFICIÊNCIA,ATUAL,2020,2019,2018,2017,2016,2015,2014,2013,2012,2011,2010,2009
M. BRUTA,28.79,28.42,29.72,25.81,21.14,19.91,19.83,24.22,24.76,23.8,25.04,27.89,29.25
M. EBITDA,7.71,8.57,9.31,6.35,5.51,7.59,7.23,6.48,6.18,5.28,7.31,11.45,
M. EBIT,1.4,1.78,1.53,-0.35,0.17,4.2,4.57,4.6,4.48,3.32,5.59,10.08,10.34
M. LÍQUIDA,-1.61,-2.08,-4.7,-6.13,-6.55,-5.65,-4.64,-2.05,-2.62,-3.55,-2.11,0.82,1.71
