INDICADORES DE VALUATION,ATUAL,2020,2019,2018,2017,2016,2015,2014,2013,2012,2011
D.Y,,,,,,,,,,,0.62
P/L,-154.67,-200.85,-90.32,-47.97,-22.54,-5.4,-9.3,-21.85,-14.98,-15.92,-11.46
PEG RATIO,18.69,5.95,,14.08,1.47,-0.33,-0.06,-9.29,2.3,-0.17,
P/VP,2.11,4.46,5.01,5.39,2.37,0.85,1.44,1.16,2.88,2.8,0.9
EV/EBITDA,33.99,44.99,45.54,50.62,31.93,7.54,8.47,7.68,10.88,16.15,7.1
EV/EBIT,187.47,216.24,276.83,-913.96,1005.89,13.64,13.4,10.82,14.99,25.68,9.27
P/EBITDA,32.34,48.77,45.62,46.24,26.78,4.02,5.97,6.91,6.36,10.69,3.3
P/EBIT,178.37,234.43,277.31,-834.81,843.53,7.27,9.44,9.73,8.76,17.0,4.32
VPA,17.42,16.94,12.54,7.8,8.63,11.96,10.59,19.37,5.3,6.06,10.03
P/ATIVO,0.77,1.87,1.79,1.46,0.73,0.26,0.39,0.47,0.36,0.57,0.25
LPA,-0.24,-0.38,-0.7,-0.88,-0.91,-1.89,-1.64,-1.03,-1.02,-1.07,-0.79
P/SR,2.49,4.18,4.25,2.94,1.48,0.31,0.43,0.45,0.39,0.56,0.24
P/CAP. GIRO,2.53,4.05,6.24,4.99,2.84,1.44,1.94,3.88,1.51,1.82,0.73
P/ATIVO CIRC. LIQ.,-1.93,-6.2,-4.34,-3.18,-1.64,-0.49,-0.83,-0.99,-0.97,-1.65,-0.79
