#,2020,AH %,empty_3,2019,empty_6,2018,empty_9,2017,empty_12,2016,empty_14
Ativo Total - (R$),33056000000.0,13.72,,24424000000.0,,21056000000.0,,19931000000.0,,17527000000.0,
Ativo Circulante - (R$),19248000000.0,16.2,,12452000000.0,,13544000000.0,,12443000000.0,,10708000000.0,
Aplicações Financeiras - (R$),0.0,,,0.0,,0.0,,0.0,,0.0,
Caixa e Equivalentes de Caixa - (R$),2984000000.0,0.0,,1364000000.0,,3711000000.0,,4030000000.0,,4030000000.0,
Contas a Receber - (R$),7907000000.0,43.35,,5112000000.0,,3768000000.0,,3988000000.0,,2782000000.0,
Estoque - (R$),6176000000.0,0.0,,4565000000.0,,4773000000.0,,3054000000.0,,3054000000.0,
Ativo Não Circulante - (R$),13808000000.0,10.59,,11972000000.0,,7512000000.0,,7541000000.0,,6819000000.0,
Ativo Realizável a Longo Prazo - (R$),7457000000.0,20.7,,5573000000.0,,4528000000.0,,4804000000.0,,3980000000.0,
Investimentos - (R$),206000000.0,-1.39,,145000000.0,,108000000.0,,142000000.0,,144000000.0,
Imobilizado - (R$),4492000000.0,0.0,,5009000000.0,,1449000000.0,,1438000000.0,,1438000000.0,
Intangível - (R$),1653000000.0,0.0,,1245000000.0,,1427000000.0,,1257000000.0,,1257000000.0,
Passivo Total - (R$),33056000000.0,13.72,,24424000000.0,,21056000000.0,,19931000000.0,,17527000000.0,
Passivo Circulante - (R$),18497000000.0,18.42,,15733000000.0,,14880000000.0,,14278000000.0,,12057000000.0,
Passivo Não Circulante - (R$),8580000000.0,1.2,,8113000000.0,,3653000000.0,,2694000000.0,,2662000000.0,
Patrimônio Líquido Consolidado - (R$),5979000000.0,5.38,,578000000.0,,2523000000.0,,2959000000.0,,2808000000.0,
Capital Social Realizado - (R$),5039000000.0,0.03,,2903000000.0,,2899000000.0,,2896000000.0,,2895000000.0,
Reserva Capital - (R$),1423000000.0,0.56,,-857000000.0,,-871000000.0,,-881000000.0,,-886000000.0,
Reserva Lucros - (R$),1004000000.0,18.15,,0.0,,537000000.0,,944000000.0,,799000000.0,
Participação dos Não Controladores,0.0,,,0.0,,0.0,,0.0,,0.0,
