#,"ÚLT. 12M
3T2020 - 2T2021",AH %,empty_3,2020,empty_6,2019,empty_9,2018,empty_12,2017,empty_15,2016,empty_18,2015,empty_21,2014,empty_24,2013,empty_27,2012,empty_30,2011,empty_33,2010,empty_36,2009,empty_38
"Receita Líquida - (R$)
format_quote",13316620000.0,12.14,,10124350000.0,,6767980000.0,,6488470000.0,,6285860000.0,,8601310000.0,,9013780000.0,,7963840000.0,,6088500000.0,,4812440000.0,,4232140000.0000005,,4073570000.0,,3632580000.0,
Custos - (R$),-9483430000.0,14.3,,-7247260000.0,,-4756350000.0,,-4813570000.0,,-4956820000.0,,-6889180000.0,,-7226280000.0,,-6035350000.0,,-4581030000.0,,-3666980000.0,,-3172480000.0,,-2937530000.0,,-2570040000.0,
"Lucro Bruto - (R$)
format_quote",3833190000.0,6.92,,2877090000.0,,2011630000.0,,1674900000.0,,1329040000.0,,1712130000.0,,1787500000.0,,1928490000.0,,1507480000.0,,1145460000.0,,1059660000.0000001,,1136040000.0,,1062550000.0,
Despesas/Receitas Operacionais - (R$),-3647080000.0,-5.59,,-2696520000.0,,-1907970000.0,,-1697740000.0,,-1318040000.0,,-1351050000.0,,-1375370000.0,,-1561850000.0,,-1234510000.0,,-985620000.0,,-823040000.0,,-725280000.0,,-686860000.0,
"EBITDA - (R$)
format_quote",1026410000.0000001,,,867930000.0,,630070000.0,,412320000.0,,346420000.0,,652920000.0,,652070000.0,,516360000.0,,375970000.0,,254180000.0,,309250000.0,,466530000.0,,,
"Amortização/Depreciação
format_quote",-687230000.0,,,-601760000.0,,-522700000.00000006,,-435150000.0,,-335430000.0,,-291840000.0,,-239940000.0,,-149720000.0,,-103000000.0,,-94330000.0,,-72640000.0,,-55770000.0,,,
"EBIT - (R$)
format_quote",186110000.0,9.34,,180570000.0,,103660000.0,,-22840000.0,,11000000.0,,361080000.0,,412130000.0,,366640000.0,,272970000.0,,159850000.0,,236610000.0,,410760000.0,,375680000.0,
"Resultado não operacional - (R$)
format_quote",0.0,,,,,0.0,,0.0,,0.0,,0.0,,0.0,,0.0,,0.0,,0.0,,0.0,,0.0,,0.0,
"Resultado Financeiro - (R$)
format_quote",-401140000.0,-29.11,,-430180000.0,,-566350000.0,,-566330000.0,,-631690000.0,,-1084280000.0,,-818320000.0,,-650450000.0,,-512870000.0,,-420220000.0,,-372020000.0,,-360860000.0,,-279490000.0,
Impostos - (R$),400000.0,-52.26,,38850000.0,,144460000.0,,191260000.0,,208940000.0,,237300000.0,,-12250000.0,,120500000.0,,80340000.0,,89700000.0,,46240000.0,,-16309999.999999998,,-34170000.0,
"Lucro Líquido - (R$)
format_quote",-214630000.0,-45.84,,-210760000.0,,-318240000.0,,-397910000.0,,-411750000.0,,-485900000.0,,-418440000.0,,-163310000.0,,-159560000.0,,-170670000.0,,-89170000.0,,33590000.0,,62020000.0,
Lucro atribuído a Controladora,-214630000.0,-45.84,,-210760000.0,,-318240000.0,,-397430000.0,,-411450000.0,,-485860000.0,,-418380000.0,,-163310000.0,,-159560000.0,,-170670000.0,,-89170000.0,,33590000.0,,62020000.0,
Lucro atribuído a Não Controladores,0.0,,,0.0,,0.0,,-490000.0,,-300000.0,,-41000.0,,-53000.0,,0.0,,0.0,,0.0,,0.0,,0.0,,0.0,
"CAPEX - (R$)
format_quote",0.0,,,,,,,,,,,,,,,,,,,,,,,,,,
"Dívida Bruta - (R$)
format_quote",14942780000.0,41.34,,7762040000.0,,6433340000.0,,6848240000.0,,6242030000.0,,4266180000.0000005,,4201200000.0,,1909570000.0,,3580650000.0,,2758850000.0,,2110889999.9999998,,2078330000.0,,1470450000.0,
"Dívida Líquida - (R$)
format_quote",1693440000.0,,,,,,,,,,,,,,,,,,,,,,,,,,
"ROE - (%)
format_quote",-1.36,-53.75,,-2.22,,-5.55,,-11.25,,-10.54,,-15.79,,-15.46,,-5.3,,-19.23,,-17.61,,-7.83,,14.87,,32.15,
"ROIC - (%)
format_quote",0.61,-16.61,,0.82,,-0.34,,-2.06,,-1.95,,1.69,,5.79,,4.93,,4.37,,1.88,,5.86,,17.12,,20.53,
"Margem Bruta - (%)
format_quote",28.79,-4.65,,28.42,,29.72,,25.81,,21.14,,19.91,,19.83,,24.22,,24.76,,23.8,,25.04,,27.89,,29.25,
Margem Ebitda - (%),7.71,,,8.57,,9.31,,6.35,,5.51,,7.59,,7.23,,6.48,,6.18,,5.28,,7.31,,11.45,,,
"Margem Líquida - (%)
format_quote",-1.61,-52.05,,-2.08,,-4.7,,-6.13,,-6.55,,-5.65,,-4.64,,-2.05,,-2.62,,-3.55,,-2.11,,0.82,,1.71,
"Dívida Líquida/Ebitda
format_quote",1.65,,,,,,,,,,,,,,,,,,,,,,,,,,
