INDICADORES DE CRESCIMENTO,ATUAL,2020,2019,2018,2017,2016,2015,2014,2013,2012,2011,2010,2009
CAGR RECEITAS 5 ANOS,6.04,6.04,8.39,6.73,8.05,11.05,9.45,206.92,,,,,
CAGR LUCROS 5 ANOS,1.55,-5.99,4.69,8.68,12.92,9.34,100.93,22.84,,,,,
