INDICADORES DE EFICIÊNCIA,ATUAL,2020,2019,2018,2017,2016,2015,2014,2013,2012,2011,2010,2009
M. BRUTA,69.9,57.67,60.65,46.23,47.63,45.64,42.07,43.44,51.09,52.68,46.33,55.35,85.3
M. EBITDA,24.75,5.16,18.03,,,,,,,,,,
M. EBIT,22.63,3.01,16.18,23.31,20.45,20.39,14.1,22.33,22.01,17.14,17.62,21.85,1610.1
M. LÍQUIDA,15.24,10.87,14.05,18.97,15.51,12.36,19.87,16.7,17.33,12.44,13.36,0.95,1626.79
