#,2020,AH %,empty_3,2019,empty_6,2018,empty_9,2017,empty_12,2016,empty_14
Ativo Total - (R$),24647200000.0,21.62,,19791070000.0,,8796740000.0,,7419510000.0,,6100610000.0,
Ativo Circulante - (R$),16798810000.000002,34.13,,12841160000.0,,6412390000.0,,5257620000.0,,3919840000.0,
Aplicações Financeiras - (R$),1221780000.0,53.79,,4448160000.0,,409110000.0,,1259550000.0,,818980000.0,
Caixa e Equivalentes de Caixa - (R$),1681380000.0,-31.12,,305750000.0,,599090000.0,,412710000.0,,599140000.0,
Contas a Receber - (R$),4761900000.0,113.65,,2915030000.0,,2051560000.0,,1241290000.0,,581000000.0,
Estoque - (R$),5927240000.0,23.33,,3801760000.0,,2810250000.0,,1969330000.0,,1596740000.0,
Ativo Não Circulante - (R$),7848390000.0,-0.87,,6949910000.0,,2384350000.0,,2161900000.0,,2180760000.0,
Ativo Realizável a Longo Prazo - (R$),1851000000.0,-7.94,,1748700000.0,,722810000.0,,749160000.0,,813820000.0,
Investimentos - (R$),386730000.0,5.96,,305090000.0,,308460000.0,,311350000.0,,293830000.0,
Imobilizado - (R$),3723680000.0,1.6,,3350490000.0,,754250000.0,,569030000.0,,560070000.0,
Intangível - (R$),1887000000.0,3.76,,1545630000.0,,598820000.0,,532360000.0,,513049999.99999994,
Passivo Total - (R$),24647200000.0,21.62,,19791070000.0,,8796740000.0,,7419510000.0,,6100610000.0,
Passivo Circulante - (R$),13416150000.0,12.62,,8002590000.0,,5388600000.0,,4136040000.0,,3672430000.0,
Passivo Não Circulante - (R$),3905770000.0,-33.05,,4223550000.0,,1105270000.0,,1209500000.0,,1806590000.0,
Patrimônio Líquido Consolidado - (R$),7325290000.0,233.66,,7564940000.0,,2302870000.0,,2073980000.0,,621590000.0,
Capital Social Realizado - (R$),5952280000.0,183.57,,5952280000.0,,1719890000.0,,1719890000.0,,606510000.0,
Reserva Capital - (R$),-213040000.0,338.57,,198730000.0,,-34840000.0,,23140000.0,,-9700000.0,
Reserva Lucros - (R$),1574890000.0,1292.37,,1410760000.0,,612500000.0,,328290000.0,,23580000.0,
Participação dos Não Controladores,0.0,,,0.0,,0.0,,0.0,,0.0,
