#,2020,AH %,2019,2018,2017,2016
Caixa Líquido Atividades Operacionais - (R$),2603880000.0,-92.73,-3329560000.0,1236160000.0,19480000.0,267750000.0
Caixa Gerado nas Operações - (R$),1580130000.0,55.19,2662300000.0,1090690000.0,755050000.0,486520000.0
Lucro Líquido - (R$),391710000.0,349.4,921830000.0,597430000.0,389020000.0,86570000.0
Equivalência Patrimonial - (R$),,37.41,,-57760000.0,-86160000.0,-62700000.0
Depreciação e Amortização - (R$),702520000.0,7.07,486980000.0,163690000.0,143060000.0,133610000.00000001
Variações nos Ativos e Passivos - (R$),1114720000.0,-165.81,-5960970000.0,214700000.0,-762700000.0,-286930000.0
Caixa Líquido Atividades de Investimento - (R$),-651450000.0,-24.44,-928590000.0,-394110000.0,-168660000.0,-135530000.0
Caixa Líquido Atividades de Financiamento - (R$),-576810000.0,75.25,3964800000.0,-655670000.0,-37250000.0,-150550000.0
Variação Cambial de Caixa e Equivalentes - (R$),0.0,,0.0,0.0,0.0,0.0
Aumento de Caixa e Equivalentes - (R$),1375630000.0,-917.43,-293340000.0,186380000.0,-186430000.0,-18320000.0
Saldo Inicial de Caixa e Equivalentes - (R$),305750000.0,-2.97,599090000.0,412710000.0,599140000.0,617470000.0
Saldo Final de Caixa e Equivalentes - (R$),1681380000.0,-31.12,305750000.0,599090000.0,412710000.0,599140000.0
