INDICADORES DE CRESCIMENTO,ATUAL,2020,2019,2018,2017,2016,2015,2014,2013,2012,2011,2010,2009,2008
CAGR RECEITAS 5 ANOS,26.58,26.58,15.25,14.02,11.14,8.17,13.3,23.89,25.38,,,,,
CAGR LUCROS 5 ANOS,,,48.29,39.32,,49.31,,,,,,,,
