#,2020,AH %,2019,2018,2017,2016
Caixa Líquido Atividades Operacionais - (R$),2091810000.0,-40.9,2503510000.0,1755460000.0,1377760000.0,2331290000.0
Caixa Gerado nas Operações - (R$),2691590000.0,23.13,2670670000.0,2934970000.0,2693850000.0,2187850000.0
Lucro Líquido - (R$),2362010000.0,5.56,1927280000.0,1796950000.0,1044160000.0000001,989190000.0
Equivalência Patrimonial - (R$),,,,,,
Depreciação e Amortização - (R$),648560000.0,7.01,622360000.0,609900000.0,578340000.0,540430000.0
Variações nos Ativos e Passivos - (R$),-599780000.0,-1017.55,-167160000.0,-1179510000.0,-1316090000.0,143440000.0
Caixa Líquido Atividades de Investimento - (R$),-1452800000.0,-63.19,-2324370000.0,-945690000.0,-994230000.0,-609250000.0
Fluxo de Caixa Livre - (R$),,,,,,
Caixa Líquido Atividades de Financiamento - (R$),-541770000.0,6.58,256070000.0,-209530000.0,-798090000.0,-854330000.0
Variação Cambial de Caixa e Equivalentes - (R$),0.0,,0.0,0.0,0.0,0.0
Aumento de Caixa e Equivalentes - (R$),97250000.0,-147.78,435220000.0,600230000.0,-414550000.0,867710000.0
Saldo Inicial de Caixa e Equivalentes - (R$),2638610000.0,75.45,2203390000.0,1603160000.0,2017710000.0,1150000000.0
Saldo Final de Caixa e Equivalentes - (R$),2735860000.0,-20.55,2638610000.0,2203390000.0,1603160000.0,2017710000.0
