INDICADORES DE RENTABILIDADE,ATUAL,2020,2019,2018,2017,2016,2015,2014,2013,2012,2011,2010,2009
ROE,17.54,14.9,14.5,14.93,7.76,8.86,21.78,15.2,8.22,7.69,10.69,12.79,15.95
ROA,5.8,4.98,4.87,5.59,2.97,3.46,6.88,5.64,2.66,2.38,3.6,4.55,5.84
ROIC,12.48,10.67,10.19,10.4,8.19,10.19,14.86,11.52,8.97,6.89,9.14,9.49,9.99
GIRO ATIVOS,0.52,0.49,0.55,0.61,0.6,0.49,0.56,0.68,0.5,0.45,0.42,0.42,0.39
