INDICADORES DE ENDIVIDAMENTO,ATUAL,2020,2019,2018,2017,2016,2015,2014,2013,2012,2011,2010,2009
DÍV. LÍQUIDA/PL,0.76,0.61,0.62,0.6,0.55,0.47,0.87,0.52,0.51,0.83,0.59,0.5,0.48
DÍV. LÍQUIDA/EBITDA,1.95,1.78,1.91,,,,,,,,,,
DÍV. LÍQUIDA/EBIT,2.33,2.18,2.41,2.35,2.73,2.16,2.11,1.7,2.1,3.8,2.34,1.91,1.76
PL/ATIVOS,0.33,0.33,0.34,0.37,0.38,0.39,0.32,0.37,0.32,0.31,0.34,0.36,0.37
PASSIVOS/ATIVOS,0.63,0.63,0.62,0.58,0.56,0.53,0.59,0.5,0.56,0.56,0.52,0.5,0.48
LIQ. CORRENTE,1.04,0.93,1.28,1.54,1.21,1.17,1.24,0.88,1.02,1.08,1.3,1.14,1.17
