INDICADORES DE RENTABILIDADE,ATUAL,2020,2019,2018,2017,2016,2015,2014,2013,2012,2011,2010,2009
ROE,21.4,16.39,19.69,11.66,6.99,2.59,19.01,27.8,24.56,35.47,20.57,19.68,19.11
ROA,7.89,5.3,6.26,2.84,2.37,0.8,6.04,8.96,10.41,10.48,6.47,6.73,7.04
ROIC,15.61,11.6,5.03,6.18,6.96,6.3,13.53,17.09,15.44,9.36,12.3,12.48,11.4
GIRO ATIVOS,0.51,0.47,0.51,0.37,0.51,0.45,0.54,0.56,0.49,0.35,0.42,0.41,0.4
