#,2020,AH %,2019,2018,2017,2016
Caixa Líquido Atividades Operacionais - (R$),1376440000.0,26.59,1350700000.0,1314380000.0,404430000.0,319460000.0
Caixa Gerado nas Operações - (R$),3725050000.0,191.96,1940760000.0,1873710000.0,1712460000.0,586530000.0
Lucro Líquido - (R$),3382650000.0,-72.01,1779450000.0,1895250000.0,1385460000.0,4949330000.0
Equivalência Patrimonial - (R$),-472530000.0,,-179790000.0,-200820000.0,-124810000.0,
Depreciação e Amortização - (R$),19790000.0,6.25,19960000.0,9210000.0,9630000.0,9060000.0
Variações nos Ativos e Passivos - (R$),-2348620000.0,-389.78,-590060000.0,-559330000.0,-1308030000.0,-267070000.0
Caixa Líquido Atividades de Investimento - (R$),-191640000.0,-458.37,157180000.0,-102710000.0,-361950000.0,101000000.0
Fluxo de Caixa Livre - (R$),,,,,,
Caixa Líquido Atividades de Financiamento - (R$),286570000.0,90.42,-928650000.0,-1201510000.0,-40410000.0,-422070000.0
Variação Cambial de Caixa e Equivalentes - (R$),0.0,,0.0,0.0,0.0,0.0
Aumento de Caixa e Equivalentes - (R$),1471370000.0,227.93,579230000.0,10160000.0,2060000.0,-1610000.0
Saldo Inicial de Caixa e Equivalentes - (R$),595970000.0,-26.26,16739999.999999998,6590000.0,4520000.0,6140000.0
Saldo Final de Caixa e Equivalentes - (R$),2067340000.0000002,45.56,595970000.0,16739999.999999998,6590000.0,4520000.0
