INDICADORES DE EFICIÊNCIA,ATUAL,2020,2019,2018,2017,2016,2015,2014,2013,2012,2011,2010,2009
M. BRUTA,69.02,69.27,71.19,77.23,78.04,93.58,55.3,50.89,42.52,69.08,54.38,57.97,66.73
M. EBITDA,101.62,107.52,66.0,,76.15,,49.33,41.46,-20.6,66.58,48.94,51.07,
M. EBIT,120.03,119.77,70.83,77.21,75.79,94.96,49.33,40.65,-21.35,66.34,48.94,50.8,54.11
M. LÍQUIDA,88.69,90.94,53.33,59.09,50.55,63.35,39.19,34.3,3.25,41.86,31.55,36.0,15.08
