INDICADORES DE ENDIVIDAMENTO,ATUAL,2020,2019,2018,2017,2016,2015,2014,2013,2012,2011,2010,2009
DÍV. LÍQUIDA/PL,0.36,0.15,0.05,0.21,0.12,0.07,0.12,0.14,0.13,0.64,0.56,0.29,0.22
DÍV. LÍQUIDA/EBITDA,1.25,0.51,0.29,,0.64,,1.02,1.55,-3.16,2.43,1.8,1.14,
DÍV. LÍQUIDA/EBIT,1.06,0.46,0.27,0.94,0.65,0.09,1.02,1.58,-3.05,2.44,1.8,1.15,0.87
PL/ATIVOS,0.51,0.56,0.55,0.6,0.64,0.67,0.75,0.72,0.7,0.52,0.54,0.66,0.73
PASSIVOS/ATIVOS,0.48,0.43,0.36,0.39,0.35,0.32,0.25,0.27,0.3,0.48,0.46,0.34,0.27
LIQ. CORRENTE,2.05,4.01,3.05,4.63,3.35,2.81,,3.14,2.09,2.22,1.33,1.96,2.03
