#,2020,AH %,2019,2018,2017,2016
Caixa Líquido Atividades Operacionais - (R$),1477240000.0,13.2,749110000.0,682870000.0,628840000.0,555530000.0
Caixa Gerado nas Operações - (R$),2240830000.0,19.74,1819340000.0,1168170000.0,1123360000.0,938200000.0
Lucro Líquido - (R$),616370000.0,15.34,784170000.0,638860000.0,686540000.0,595220000.0
Equivalência Patrimonial - (R$),,,,,,
Depreciação e Amortização - (R$),1177280000.0,23.13,1041030000.0,414130000.0,337910000.0,274430000.0
Variações nos Ativos e Passivos - (R$),-294050000.0,-33.98,-680850000.0,-323440000.0,-344480000.0,-257110000.0
Caixa Líquido Atividades de Investimento - (R$),-673100000.0,-30.7,-2740000.0,-702970000.0,-639180000.0,-489060000.0
Caixa Líquido Atividades de Financiamento - (R$),-223010000.0,97.46,-688710000.0,-3200000.0,-1420000.0,-55890000.0
Variação Cambial de Caixa e Equivalentes - (R$),0.0,,0.0,0.0,0.0,0.0
Aumento de Caixa e Equivalentes - (R$),581130000.0,-211.13,57660000.0,-23310000.0,-11760000.0,10580000.0
Saldo Inicial de Caixa e Equivalentes - (R$),299230000.0,3.98,241570000.0,264870000.0,276630000.0,266050000.0
Saldo Final de Caixa e Equivalentes - (R$),880360000.0,-4.25,299230000.0,241570000.0,264870000.0,276630000.0
