#,2020,AH %,2019,2018,2017,2016
Caixa Líquido Atividades Operacionais - (R$),,645.21,24870000000.0,8279999999.999999,50290000000.0,6750000000.0
Caixa Gerado nas Operações - (R$),,-5.27,31290000000.0,27570000000.0,26150000000.0,27610000000.0
Lucro Líquido - (R$),13450000000.0,22.41,16629999999.999998,12800000000.0,9140000000.0,7460000000.0
Equivalência Patrimonial - (R$),,,,,,
Depreciação e Amortização - (R$),,12.11,2390000000.0,1740000000.0,1660000000.0,1480000000.0
Variações nos Ativos e Passivos - (R$),60140000000.0,215.71,-6410000000.0,-19290000000.0,24140000000.0,-20860000000.0
Caixa Líquido Atividades de Investimento - (R$),-1160000000.0,-14.56,-2310000000.0,-2360000000.0,-1450000000.0,-1270000000.0
Caixa Líquido Atividades de Financiamento - (R$),-34150000000.0,-143.49,-26200000000.0,-3300000000.0,-44300000000.0,-18190000000.0
Variação Cambial de Caixa e Equivalentes - (R$),0.0,,-99000.0,0.0,0.0,-2290000000.0
Aumento de Caixa e Equivalentes - (R$),7000000000.0,130.27,-3630000000.0,2610000000.0,4540000000.0,-15000000000.0
Saldo Inicial de Caixa e Equivalentes - (R$),21440000000.0,-45.28,25290000000.0,22670000000.0,18130000000.0,33130000000.000004
Saldo Final de Caixa e Equivalentes - (R$),28450000000.0,25.05,21650000000.0,25290000000.0,22670000000.0,18130000000.0
