INDICADORES DE EFICIÊNCIA,ATUAL,2020,2019,2018,2017,2016,2015,2014,2013,2012,2011,2010,2009,2008
M. BRUTA,18.12,70.8,60.85,59.48,48.93,39.65,44.85,46.21,55.6,60.0,53.75,58.9,56.34,48.12
M. EBITDA,,,33.86,,,,,,,,,,,
M. EBIT,29.72,15.39,30.58,22.57,20.32,21.24,-4.6,10.93,7.85,10.4,16.97,24.44,20.68,10.72
M. LÍQUIDA,16.22,21.38,22.52,17.85,12.5,9.51,14.0,9.55,11.17,10.41,14.96,18.05,14.0,10.01
