#,2020,AH %,2019,2018,2017,2016
Caixa Líquido Atividades Operacionais - (R$),-4221000000.0,,-2196000000.0,1655000000.0,0.0,0.0
Caixa Gerado nas Operações - (R$),3283000000.0,,1849000000.0,2264000000.0,0.0,0.0
Lucro Líquido - (R$),1004000000.0,,-1433000000.0,-291000000.0,0.0,0.0
Equivalência Patrimonial - (R$),-53000000.0,,-47000000.0,-40000000.0,0.0,0.0
Depreciação e Amortização - (R$),912000000.0,,883000000.0,785000000.0,0.0,0.0
Variações nos Ativos e Passivos - (R$),-7514000000.0,,-4050000000.0,-461000000.0,0.0,0.0
Caixa Líquido Atividades de Investimento - (R$),-444000000.0,,-496000000.0,-590000000.0,0.0,0.0
Fluxo de Caixa Livre - (R$),,,,,,
Caixa Líquido Atividades de Financiamento - (R$),6285000000.0,,345000000.0,-913000000.0,0.0,0.0
Variação Cambial de Caixa e Equivalentes - (R$),0.0,,0.0,0.0,0.0,0.0
Aumento de Caixa e Equivalentes - (R$),1620000000.0,,-2347000000.0,152000000.0,0.0,0.0
Saldo Inicial de Caixa e Equivalentes - (R$),1364000000.0,,3711000000.0,3559000000.0,0.0,0.0
Saldo Final de Caixa e Equivalentes - (R$),2984000000.0,,1364000000.0,3711000000.0,0.0,0.0
