INDICADORES DE RENTABILIDADE,ATUAL,2020,2019,2018,2017,2016,2015,2014,2013,2012,2011,2010,2009,2008
ROE,19.63,16.79,-247.92,-10.58,6.59,-3.38,0.33,18.47,29.36,10.85,3.94,-2.48,-48.58,-0.13
ROA,3.7,3.04,-5.87,-1.27,0.98,-0.54,0.09,5.44,8.62,2.65,0.89,-0.64,-12.74,-0.05
ROIC,6.32,10.2,-24.9,3.35,13.41,10.09,8.54,17.86,21.81,13.17,9.01,4.42,-69.31,3.89
GIRO ATIVOS,0.98,0.87,1.05,1.28,1.29,1.13,1.18,1.42,1.62,1.61,1.53,0.87,1.58,1.95
