INDICADORES DE VALUATION,ATUAL,2020,2019,2018,2017,2016,2015,2014,2013,2012,2011
D.Y,4.21,0.06,0.94,0.38,0.14,0.67,0.58,0.72,0.67,0.58,0.73
P/L,17.74,124.61,58.91,73.94,102.46,113.29,94.21,40.04,33.71,44.27,31.85
PEG RATIO,-2.24,-2.83,,1.23,8.35,-7.35,-2.27,-5.29,2.62,2.16,
P/VP,1.47,3.99,8.03,5.71,5.27,12.05,13.53,10.2,13.28,22.43,15.7
EV/EBITDA,5.32,18.41,14.82,11.76,11.37,10.77,10.24,9.21,10.59,14.03,9.89
EV/EBIT,12.03,31.8,21.54,18.16,16.59,14.14,13.11,11.34,12.72,16.98,11.56
P/EBITDA,3.69,19.79,13.55,10.6,9.96,8.96,9.52,8.28,8.95,12.06,8.21
P/EBIT,8.34,34.19,19.7,16.37,14.53,11.76,12.19,10.19,10.76,14.6,9.61
VPA,3.46,6.59,3.23,3.45,3.24,1.41,1.43,1.69,1.18,0.82,0.91
P/ATIVO,0.22,1.03,1.25,0.99,0.88,1.15,1.15,1.02,1.1,1.64,1.14
LPA,0.29,0.21,0.44,0.27,0.17,0.15,0.21,0.43,0.47,0.41,0.45
P/SR,0.39,2.31,2.19,1.59,1.49,1.32,1.32,1.06,1.16,1.6,1.09
P/CAP. GIRO,0.72,2.52,4.97,3.09,3.06,5.7,5.06,4.83,4.44,7.41,4.91
P/ATIVO CIRC. LIQ.,-0.55,-3.04,-2.89,-2.61,-2.45,-2.64,-2.86,-2.53,-3.03,-4.87,-3.9
