#,2020,AH %,empty_3,2019,empty_6,2018,empty_9,2017,empty_12,2016,empty_14
Ativo Total - (R$),14105420000.0,-4.23,,11229980000.0,,8616290000.0,,8054820000.0,,8410620000.000001,
Ativo Circulante - (R$),2360160000.0,-0.41,,3568430000.0,,1927670000.0,,1946800000.0,,1954880000.0,
Aplicações Financeiras - (R$),0.0,,,0.0,,0.0,,0.0,,0.0,
Caixa e Equivalentes de Caixa - (R$),896030000.0,-44.16,,82560000.0,,20870000.0,,56680000.0,,101510000.0,
Contas a Receber - (R$),190380000.0,1.0,,128180000.0,,159200000.0,,174790000.0,,173060000.0,
Estoque - (R$),0.0,,,0.0,,,,,,,
Ativo Não Circulante - (R$),11745260000.0,-5.39,,7661550000.0,,6688620000.0,,6108020000.0,,6455740000.0,
Ativo Realizável a Longo Prazo - (R$),8629490000.0,-8.78,,5359040000.0,,4686630000.0,,4268080000.0,,4679130000.0,
Investimentos - (R$),2952530000.0,2.95,,2167410000.0,,1912940000.0,,1780940000.0,,1729930000.0,
Imobilizado - (R$),73680000.0,8.17,,56440000.0,,23220000.0,,23280000.0,,21520000.0,
Intangível - (R$),89570000.0,41.99,,78660000.0,,65830000.0,,35730000.0,,25170000.0,
Passivo Total - (R$),14105420000.0,-4.23,,11229980000.0,,8616290000.0,,8054820000.0,,8410620000.000001,
Passivo Circulante - (R$),841640000.0,-39.99,,996500000.0,,646810000.0,,644780000.0,,1074370000.0,
Passivo Não Circulante - (R$),7237870000.0,1.12,,5306680000.0,,3397440000.0,,3062490000.0,,3028660000.0,
Patrimônio Líquido Consolidado - (R$),6025900000.0,0.93,,4926800000.0,,4572050000.0,,4347550000.0,,4307590000.0,
Capital Social Realizado - (R$),3042040000.0,0.0,,3042040000.0,,3042040000.0,,3042040000.0,,3042040000.0,
Reserva Capital - (R$),598740000.0,0.0,,598740000.0,,594510000.0,,594510000.0,,594510000.0,
Reserva Lucros - (R$),2400430000.0,5.96,,1286020000.0,,935510000.0,,711010000.0,,671050000.0,
Participação dos Não Controladores,0.0,,,,,,,,,,
