#,"ÚLT. 12M
3T2020 - 2T2021",AH %,empty_3,2020,empty_5
"Receita Líquida - (R$)
format_quote",88740000000.0,-9.85,,98430000000.0,
Custos - (R$),-38470000000.0,-20.8,,-48580000000.0,
"Lucro Bruto - (R$)
format_quote",50270000000.0,0.83,,49850000000.0,
Despesas/Receitas Operacionais - (R$),-22390000000.0,51.08,,-45780000000.0,
"EBITDA - (R$)
format_quote",0.0,,,,
"Amortização/Depreciação
format_quote",0.0,,,,
"EBIT - (R$)
format_quote",27870000000.0,583.95,,4080000000.0,
"Resultado não operacional - (R$)
format_quote",0.0,,,,
"Resultado Financeiro - (R$)
format_quote",0.0,,,,
Impostos - (R$),-5800000000.0,-148.49,,11960000000.0,
"Lucro Líquido - (R$)
format_quote",21790000000.0,35.87,,16030000000.000002,
Lucro atribuído a Controladora,0.0,,,,
Lucro atribuído a Não Controladores,0.0,,,,
"CAPEX - (R$)
format_quote",0.0,,,,
"Dívida Bruta - (R$)
format_quote",,,,,
"Dívida Líquida - (R$)
format_quote",,,,,
"ROE - (%)
format_quote",14.87,35.55,,10.97,
"ROIC - (%)
format_quote",,,,,
"Margem Bruta - (%)
format_quote",56.65,11.85,,50.65,
Margem Ebitda - (%),,,,,
"Margem Líquida - (%)
format_quote",24.55,50.71,,16.29,
"Dívida Líquida/Ebitda
format_quote",,,,,
